<?xml version="1.0" encoding="UTF-8"?>
<svg xmlns="http://www.w3.org/2000/svg" xmlns:xlink="http://www.w3.org/1999/xlink" viewBox="0 0 841.89 85.42">
  <defs>
    <style>
      .cls-1 {
        fill: url(#linear-gradient);
      }

      .cls-1, .cls-2, .cls-3, .cls-4, .cls-5, .cls-6, .cls-7, .cls-8 {
        stroke-width: 0px;
      }

      .cls-2 {
        fill: #0072bc;
      }

      .cls-9 {
        isolation: isolate;
      }

      .cls-3 {
        fill: url(#linear-gradient-5);
        mix-blend-mode: multiply;
      }

      .cls-4 {
        fill: url(#linear-gradient-2);
      }

      .cls-5 {
        fill: url(#linear-gradient-3);
      }

      .cls-6 {
        fill: url(#radial-gradient);
      }

      .cls-7 {
        fill: url(#linear-gradient-4);
      }

      .cls-8 {
        fill: #585056;
      }
    </style>
    <radialGradient id="radial-gradient" cx="351.88" cy="-16338.91" fx="351.88" fy="-16338.91" r="5.28" gradientTransform="translate(-300.13 -32070.08) scale(1.96 -1.96)" gradientUnits="userSpaceOnUse">
      <stop offset="0" stop-color="#8ed8f8"/>
      <stop offset=".99" stop-color="#0072bc"/>
    </radialGradient>
    <linearGradient id="linear-gradient" x1="2.28" y1="88.33" x2="82.42" y2="68.15" gradientUnits="userSpaceOnUse">
      <stop offset=".25" stop-color="#008dd0"/>
      <stop offset=".8" stop-color="#662d91"/>
    </linearGradient>
    <linearGradient id="linear-gradient-2" x1="-2.93" y1="11.12" x2="57.93" y2="-8.94" gradientUnits="userSpaceOnUse">
      <stop offset=".2" stop-color="#ec008c"/>
      <stop offset=".55" stop-color="#a7178e"/>
      <stop offset=".9" stop-color="#662d91"/>
    </linearGradient>
    <linearGradient id="linear-gradient-3" x1=".38" y1="23.69" x2="81.19" y2="23.69" gradientUnits="userSpaceOnUse">
      <stop offset=".1" stop-color="#f173ac"/>
      <stop offset=".23" stop-color="#ef5ba5"/>
      <stop offset=".62" stop-color="#ed1993"/>
      <stop offset=".8" stop-color="#ec008c"/>
    </linearGradient>
    <linearGradient id="linear-gradient-4" x1="-6.56" y1="69.88" x2="47.47" y2="36.37" gradientUnits="userSpaceOnUse">
      <stop offset="0" stop-color="#662d91"/>
      <stop offset=".5" stop-color="#ec008c"/>
      <stop offset=".58" stop-color="#ec058d"/>
      <stop offset=".68" stop-color="#ec1692"/>
      <stop offset=".8" stop-color="#ee329a"/>
      <stop offset=".92" stop-color="#ef58a4"/>
      <stop offset="1" stop-color="#f173ac"/>
    </linearGradient>
    <linearGradient id="linear-gradient-5" x1="31.48" y1="52.05" x2="37.69" y2="30.48" gradientUnits="userSpaceOnUse">
      <stop offset=".15" stop-color="#808285"/>
      <stop offset=".27" stop-color="#808285" stop-opacity=".92"/>
      <stop offset=".48" stop-color="#808285" stop-opacity=".7"/>
      <stop offset=".76" stop-color="#808285" stop-opacity=".35"/>
      <stop offset="1" stop-color="#808285" stop-opacity="0"/>
    </linearGradient>
  </defs>
  <g class="cls-9">
    <g id="Layer_2" data-name="Layer 2">
      <g id="Layer_1-2" data-name="Layer 1">
        <g>
          <g>
            <g>
              <path class="cls-2" d="m492.21,64.36c-1.25-12.04-50.43-13.71-50.43-13.71l13.25-9.67s-15.57.31-20.38,2.12c-4.81,1.81-12.57,7.64-12.57,7.64-25.01,1.66-32.06,3.45-44.39,5.18l17.92-23.13s3.77-3.08-5.52-2.41c-16.12,1.16-33.99,5.49-33.99,5.49l2.31,1.54s15.72-3.94,19.89-2.63c2.91.92-23.43,33.57-23.43,33.57,0,0-6.73,7.73,1.66,8.22,13.46.8,32.57-3.65,58.16-14.62-10.06,13.63-10.63,17.12,3.99,14.13l27-5.65-2.24-1.08s-20.5,5.67-20.19,1.83c.25-3.08,6.06-11.63,14.58-17.37,12.53.77,41.56,3.71,42.33,12.39.77,8.67-27.87,17.49-58.52,19.22,19.39.3,72-7.25,70.57-21.05Zm-118.72,7.98c-8.14.67-5.32-2.24-5.32-2.24l8.72-12.71c13.62-1.74,27-4.15,42.95-4.07-8.73,11.05-38.22,18.36-46.36,19.03Z"/>
              <path class="cls-6" d="m383.35,15.68c0,5.96,4.83,10.79,10.8,10.79s10.79-4.83,10.79-10.79-4.83-10.8-10.79-10.8-10.8,4.83-10.8,10.8Z"/>
            </g>
            <g>
              <polygon class="cls-2" points="500.17 39.5 515.34 39.5 515.34 48.17 520.63 48.17 520.63 39.5 535.72 39.5 535.72 35.68 500.17 35.68 500.17 39.5"/>
              <path class="cls-2" d="m528.88,15.91h-4.99v4.42h-12.03v-4.42h-4.99v16.58h22.01V15.91Zm-4.99,12.73h-12.03v-4.5h12.03v4.5Z"/>
              <path class="cls-2" d="m550.7,28.81c.14.35.48.86,1.03,1.51.54.66,1.17,1.34,1.89,2.05.83.79,1.63,1.46,2.41,2.03.77.56,1.73,1.13,2.88,1.7l2.79-3.28c-1.34-.74-2.57-1.58-3.68-2.51-1.1-.94-1.98-1.95-2.64-3.01-.6-.98-1.1-2.18-1.48-3.58-.39-1.4-.58-2.86-.58-4.36v-3.44h-5.33v3.15c0,1.61-.21,3.14-.64,4.6-.43,1.46-.99,2.74-1.68,3.83-.75,1.18-1.74,2.3-2.99,3.38-1.24,1.08-2.61,2.08-4.1,3.01l3.09,3.19c.86-.47,1.8-1.06,2.84-1.78,1.03-.72,2-1.55,2.88-2.48.8-.79,1.52-1.57,2.15-2.33.63-.76,1.02-1.32,1.16-1.67Z"/>
              <polygon class="cls-2" points="552.89 40.66 547.86 40.66 547.86 52.49 570.08 52.49 570.08 48.51 552.89 48.51 552.89 40.66"/>
              <polygon class="cls-2" points="569.48 15.91 564.5 15.91 564.5 43.01 569.48 43.01 569.48 30.16 574.94 30.16 574.94 26.15 569.48 26.15 569.48 15.91"/>
              <path class="cls-2" d="m592.69,31.55c.69.55,1.53,1.09,2.54,1.63,1,.55,1.89.99,2.66,1.31l2.53-3.19c-1.15-.55-2.27-1.19-3.39-1.94-1.12-.75-2.03-1.53-2.76-2.31-.68-.74-1.26-1.66-1.74-2.76-.47-1.11-.71-2.24-.71-3.42v-1.06h6.87v-3.89h-19.03v3.89h6.88v1.14c0,1.09-.23,2.21-.69,3.36-.46,1.14-1.02,2.14-1.68,2.99-.78,1.01-1.73,1.96-2.88,2.85-1.15.89-2.31,1.61-3.48,2.15l3.22,3.11c.83-.44,1.72-.97,2.67-1.6.94-.63,1.86-1.35,2.75-2.17.83-.79,1.47-1.45,1.93-1.98.46-.53.79-.99.99-1.37.29.44.72.95,1.31,1.54.59.58,1.25,1.16,2,1.74Z"/>
              <path class="cls-2" d="m599,39.21c-2.67,0-4.94.84-6.79,2.5-1.86,1.66-2.79,3.68-2.79,6.06s.93,4.35,2.79,6.02c1.86,1.67,4.13,2.49,6.79,2.49s4.97-.83,6.81-2.49c1.85-1.67,2.77-3.67,2.77-6.02s-.92-4.39-2.77-6.06c-1.85-1.66-4.12-2.5-6.81-2.5Zm3.18,11.78c-.95.89-2.05,1.33-3.31,1.33s-2.33-.45-3.22-1.33c-.89-.89-1.33-1.96-1.33-3.22s.47-2.37,1.4-3.26c.93-.89,2.03-1.33,3.29-1.33s2.34.44,3.25,1.33c.9.89,1.35,1.97,1.35,3.26s-.47,2.33-1.42,3.22Z"/>
              <polygon class="cls-2" points="604.46 24.19 597.11 24.19 597.11 27.99 604.46 27.99 604.46 38.39 609.45 38.39 609.45 15.91 604.46 15.91 604.46 24.19"/>
              <path class="cls-2" d="m636.67,34.54h8.25V15.91h-4.97v5.57h-12.04v-5.57h-4.98v18.63h8.46v5h-15.3v3.89h35.81v-3.89h-15.22v-5Zm-8.76-3.85v-5.41h12.04v5.41h-12.04Z"/>
              <path class="cls-2" d="m666.75,28.81c.15.35.49.86,1.04,1.51.54.66,1.18,1.34,1.9,2.05.83.79,1.62,1.46,2.4,2.03.78.56,1.74,1.13,2.89,1.7l2.78-3.28c-1.34-.74-2.57-1.58-3.67-2.51-1.1-.94-1.98-1.95-2.64-3.01-.61-.98-1.1-2.17-1.49-3.58-.38-1.4-.58-2.86-.58-4.36v-3.44h-5.32v3.15c0,1.61-.23,3.14-.65,4.6-.43,1.46-.99,2.74-1.67,3.83-.75,1.18-1.75,2.3-3,3.38-1.24,1.08-2.61,2.08-4.1,3.01l3.09,3.19c.87-.47,1.8-1.06,2.83-1.78,1.03-.72,1.99-1.55,2.88-2.48.81-.79,1.52-1.57,2.15-2.33.63-.76,1.01-1.32,1.16-1.67Z"/>
              <polygon class="cls-2" points="668.94 40.66 663.91 40.66 663.91 52.49 686.14 52.49 686.14 48.51 668.94 48.51 668.94 40.66"/>
              <polygon class="cls-2" points="685.54 15.91 680.54 15.91 680.54 43.01 685.54 43.01 685.54 30.16 690.99 30.16 690.99 26.15 685.54 26.15 685.54 15.91"/>
              <path class="cls-2" d="m711.44,31.58c1.9-1.79,2.85-3.96,2.85-6.49s-.95-4.7-2.85-6.49c-1.91-1.78-4.22-2.68-6.95-2.68s-5.03.9-6.94,2.68c-1.9,1.79-2.86,3.95-2.86,6.49s.95,4.7,2.86,6.49c1.91,1.78,4.22,2.68,6.94,2.68s5.04-.9,6.95-2.68Zm-11.71-6.49c0-1.42.47-2.62,1.42-3.6.95-.98,2.06-1.47,3.35-1.47s2.41.49,3.35,1.47c.94.98,1.43,2.18,1.43,3.6s-.48,2.62-1.43,3.6c-.94.99-2.06,1.47-3.35,1.47s-2.4-.49-3.35-1.47c-.94-.98-1.42-2.19-1.42-3.6Z"/>
              <path class="cls-2" d="m720.11,43.17h-11.14v-3.85h-5.03v15.27h21.2v-15.27h-5.02v3.85Zm0,7.57h-11.14v-3.8h11.14v3.8Z"/>
              <polygon class="cls-2" points="720.53 23.82 715.54 23.82 715.54 27.79 720.53 27.79 720.53 36.06 725.51 36.06 725.51 15.91 720.53 15.91 720.53 23.82"/>
              <path class="cls-2" d="m744.34,28.85c.3.44.73.97,1.34,1.58.6.61,1.27,1.24,1.98,1.86.74.63,1.52,1.2,2.32,1.7.8.51,1.76,1,2.88,1.5l2.58-3.29c-1.17-.63-2.33-1.34-3.48-2.15-1.15-.81-2.08-1.62-2.8-2.44-.65-.79-1.21-1.76-1.67-2.9-.46-1.14-.68-2.31-.68-3.48v-1.43h6.87v-3.89h-19.04v3.89h6.87v1.51c0,1.12-.2,2.27-.64,3.44-.43,1.17-.95,2.19-1.55,3.03-.77,1.04-1.75,2.04-2.94,3.03-1.19.98-2.37,1.8-3.54,2.46l3.17,3.15c1.18-.66,2.17-1.29,2.97-1.9.8-.62,1.65-1.37,2.53-2.23.84-.82,1.48-1.49,1.92-2.04.44-.55.75-1.01.92-1.4Z"/>
              <polygon class="cls-2" points="747.48 40.62 742.46 40.62 742.46 52.49 765.11 52.49 765.11 48.51 747.48 48.51 747.48 40.62"/>
              <rect class="cls-2" x="759.22" y="15.91" width="4.99" height="26.98"/>
              <rect class="cls-2" x="770.75" y="35.64" width="36.02" height="3.73"/>
              <path class="cls-2" d="m779.85,24.69c-.31.67-.46,1.39-.46,2.15,0,2.02.91,3.76,2.73,5.22,1.82,1.46,4,2.19,6.55,2.19s4.74-.72,6.57-2.17c1.85-1.44,2.76-3.19,2.76-5.24,0-.76-.15-1.49-.45-2.15-.3-.67-.72-1.26-1.26-1.78h4.86v-3.68h-9.76v-3.32h-5.38v3.32h-9.8v3.68h4.82c-.49.52-.88,1.11-1.18,1.78Zm5.86-.59c.83-.74,1.82-1.11,2.97-1.11s2.17.37,3.01,1.11c.82.74,1.24,1.65,1.24,2.74s-.42,2-1.24,2.74c-.84.74-1.84,1.11-3.01,1.11s-2.14-.37-2.97-1.11c-.83-.74-1.24-1.65-1.24-2.74s.41-2.01,1.24-2.74Z"/>
              <path class="cls-2" d="m795.81,42.95c-1.89-1.53-4.19-2.3-6.92-2.3s-4.99.77-6.89,2.3c-1.91,1.53-2.85,3.36-2.85,5.53s.94,3.95,2.85,5.48c1.9,1.53,4.21,2.29,6.89,2.29s5.04-.76,6.92-2.29c1.89-1.53,2.83-3.36,2.83-5.48s-.94-4-2.83-5.53Zm-3.65,8.47c-.96.78-2.08,1.18-3.39,1.18s-2.44-.4-3.33-1.18c-.9-.8-1.36-1.78-1.36-2.95s.47-2.16,1.42-2.95c.94-.79,2.07-1.18,3.39-1.18s2.43.4,3.33,1.2c.9.81,1.36,1.79,1.36,2.93s-.48,2.15-1.42,2.95Z"/>
              <polygon class="cls-2" points="824.31 48.51 824.31 42.54 819.28 42.54 819.28 52.49 841.89 52.49 841.89 48.51 824.31 48.51"/>
              <path class="cls-2" d="m824.35,41.38v-4.95c2.15-.14,4.22-.28,6.21-.43,1.99-.15,3.54-.3,4.67-.43v-3.64c-2,.22-4.89.44-8.64.65-3.75.22-7.08.33-9.97.33h-7.18v3.72l8.68-.04h1.12v4.79h5.11Z"/>
              <path class="cls-2" d="m815.26,29.73c1.93,1.51,4.14,2.27,6.64,2.27s4.67-.76,6.62-2.27c1.95-1.51,2.92-3.39,2.92-5.63s-.93-4.2-2.8-5.79c-1.86-1.59-4.11-2.4-6.75-2.4s-4.88.8-6.75,2.4c-1.86,1.6-2.79,3.52-2.79,5.79s.96,4.11,2.9,5.63Zm3.65-8.68c.93-.84,1.93-1.25,2.99-1.25s2.09.41,3.01,1.25c.92.83,1.37,1.85,1.37,3.05s-.45,2.17-1.37,3.01c-.91.83-1.92,1.24-3.01,1.24s-2.06-.41-2.99-1.24c-.93-.84-1.39-1.84-1.39-3.01s.47-2.22,1.39-3.05Z"/>
              <polygon class="cls-2" points="828.57 41.05 836.65 41.05 836.65 44.08 841.63 44.08 841.63 15.95 836.65 15.95 836.65 37.49 828.57 37.49 828.57 41.05"/>
              <path class="cls-2" d="m516.99,73.25c0,1.46-.4,2.61-1.21,3.41-.8.8-1.88,1.21-3.23,1.21h-5.95v-16.32h5.71c1.36,0,2.44.4,3.24,1.19.8.79,1.2,1.89,1.2,3.28,0,.82-.2,1.55-.59,2.16-.39.63-.86,1.06-1.39,1.3.62.28,1.13.71,1.52,1.31.47.68.71,1.51.71,2.47Zm-2.48-7.15c0-.75-.22-1.32-.65-1.72-.43-.41-1.02-.61-1.74-.61h-3.29v4.66h3.29c.73,0,1.31-.2,1.74-.6.43-.41.65-.99.65-1.73Zm.25,7.03c0-.75-.21-1.34-.63-1.79-.42-.45-1.01-.67-1.78-.67h-3.51v4.96h3.51c.75,0,1.35-.23,1.77-.68.43-.46.64-1.06.64-1.81Z"/>
              <path class="cls-2" d="m528.45,77.86h-2.07v-1.16c-.73.86-1.66,1.29-2.79,1.29-.54,0-1.02-.09-1.46-.27-.43-.17-.81-.44-1.13-.79-.38-.41-.66-.89-.82-1.42-.15-.54-.24-1.15-.24-1.85v-7.43h2.1v7.08c0,.87.2,1.52.59,1.95.39.43.9.64,1.55.64s1.17-.22,1.58-.66c.41-.43.62-1.08.62-1.94v-7.08h2.07v11.64Z"/>
              <path class="cls-2" d="m539.51,74.31c0,1.18-.4,2.08-1.2,2.73-.8.64-1.85.96-3.15.96-.94,0-1.73-.1-2.37-.32-.76-.26-1.43-.71-2.02-1.35l1.39-1.53c.39.44.84.75,1.36.94.52.18,1.07.27,1.64.27.67,0,1.22-.13,1.65-.4.43-.27.64-.67.64-1.21,0-.43-.11-.76-.33-1.01-.22-.24-.58-.37-1.07-.37l-1.67-.16c-1.01-.09-1.78-.4-2.3-.92-.52-.52-.78-1.29-.78-2.3,0-1.12.37-1.99,1.11-2.62.73-.63,1.67-.95,2.83-.95.81,0,1.54.1,2.18.31.65.21,1.21.55,1.69,1l-1.32,1.49c-.31-.29-.68-.5-1.14-.64-.46-.13-.94-.2-1.43-.2-.62,0-1.09.13-1.41.39-.32.27-.49.63-.49,1.09,0,.39.11.69.32.91.21.22.59.36,1.12.42l1.65.16c1.01.09,1.79.4,2.32.94.53.54.79,1.32.79,2.34Z"/>
              <path class="cls-2" d="m549.78,77.86h-2.06v-1.05c-.4.44-.8.75-1.2.93-.4.16-.93.26-1.59.26-1.24,0-2.18-.35-2.81-1.06-.55-.64-.83-1.47-.83-2.49s.31-1.81.94-2.42c.62-.61,1.52-.92,2.7-.92h2.78v-.83c0-.75-.18-1.31-.54-1.67-.36-.35-.95-.53-1.77-.53-.57,0-1.02.08-1.36.24-.34.17-.66.46-.95.9l-1.38-1.46c.48-.61,1.01-1.04,1.58-1.29.57-.25,1.3-.37,2.17-.37,2.89,0,4.32,1.33,4.32,4v7.78Zm-2.06-4.2v-.94h-2.48c-1.27,0-1.9.55-1.9,1.67s.64,1.64,1.94,1.64c.5,0,.89-.03,1.16-.12.28-.07.55-.27.85-.58.29-.31.44-.88.44-1.68Z"/>
              <path class="cls-2" d="m561.5,77.86h-2.1v-7.09c0-.87-.2-1.52-.58-1.95-.39-.43-.91-.64-1.55-.64s-1.17.22-1.58.65c-.41.44-.62,1.09-.62,1.94v7.09h-2.07v-11.64h2.07v1.17c.73-.87,1.66-1.31,2.79-1.31.54,0,1.02.09,1.46.26.43.18.81.44,1.12.79.39.42.66.89.82,1.43.16.53.24,1.15.24,1.85v7.44Z"/>
              <path class="cls-2" d="m572.17,77.86h-2.24v-16.32h2.24v16.32Z"/>
              <path class="cls-2" d="m585.05,63.77h-4.05v14.09h-2.23v-14.09h-4.05v-2.23h10.33v2.23Z"/>
              <path class="cls-2" d="m594.75,77.86h-2.23v-16.32h2.23v16.32Z"/>
              <path class="cls-2" d="m606.84,77.86h-2.1v-7.09c0-.87-.2-1.52-.59-1.95-.39-.43-.9-.64-1.55-.64s-1.17.22-1.58.65c-.41.44-.61,1.09-.61,1.94v7.09h-2.06v-11.64h2.06v1.17c.73-.87,1.66-1.31,2.79-1.31.54,0,1.03.09,1.46.26.43.18.81.44,1.12.79.38.42.66.89.82,1.43.16.53.24,1.15.24,1.85v7.44Z"/>
              <path class="cls-2" d="m618.15,77.86h-2.07v-1.24c-.37.5-.77.86-1.2,1.07-.43.21-.95.31-1.56.31-.52,0-1.01-.09-1.44-.27-.44-.17-.82-.43-1.12-.77-.47-.53-.78-1.2-.94-2.05-.15-.85-.24-1.81-.24-2.88,0-1.43.1-2.51.32-3.22.2-.71.5-1.27.87-1.69.62-.68,1.48-1.03,2.56-1.03.59,0,1.11.1,1.54.3.44.19.84.53,1.21,1.03v-5.88h2.07v16.32Zm-2.07-5.83c0-1.22-.12-2.12-.37-2.7-.33-.76-.94-1.15-1.82-1.15s-1.48.39-1.82,1.15c-.27.6-.4,1.5-.4,2.7s.12,2.14.38,2.7c.35.78.96,1.18,1.84,1.18s1.49-.39,1.82-1.15c.25-.58.37-1.49.37-2.73Z"/>
              <path class="cls-2" d="m629.9,77.86h-2.07v-1.16c-.73.86-1.67,1.29-2.8,1.29-.53,0-1.02-.09-1.45-.27-.43-.17-.81-.44-1.12-.79-.39-.41-.66-.89-.83-1.42-.15-.54-.23-1.15-.23-1.85v-7.43h2.09v7.08c0,.87.2,1.52.58,1.95.4.43.91.64,1.56.64s1.16-.22,1.57-.66c.41-.43.63-1.08.63-1.94v-7.08h2.07v11.64Z"/>
              <path class="cls-2" d="m640.96,74.31c0,1.18-.41,2.08-1.21,2.73-.79.64-1.85.96-3.13.96-.95,0-1.74-.1-2.37-.32-.75-.26-1.43-.71-2.02-1.35l1.39-1.53c.39.44.83.75,1.35.94.53.18,1.07.27,1.66.27.67,0,1.22-.13,1.64-.4.42-.27.64-.67.64-1.21,0-.43-.11-.76-.33-1.01-.21-.24-.57-.37-1.07-.37l-1.67-.16c-1.02-.09-1.78-.4-2.31-.92-.51-.52-.77-1.29-.77-2.3,0-1.12.36-1.99,1.1-2.62.73-.63,1.68-.95,2.82-.95.81,0,1.54.1,2.18.31.65.21,1.21.55,1.69,1l-1.32,1.49c-.3-.29-.68-.5-1.14-.64-.46-.13-.94-.2-1.43-.2-.61,0-1.09.13-1.41.39-.32.27-.48.63-.48,1.09,0,.39.11.69.32.91.21.22.59.36,1.12.42l1.65.16c1.02.09,1.79.4,2.31.94.53.54.8,1.32.8,2.34Z"/>
              <path class="cls-2" d="m647.9,77.86h-1.26c-.92,0-1.63-.33-2.16-.98-.47-.6-.7-1.35-.7-2.25v-6.39h-1.2v-1.79h1.2v-3.55h2.1v3.55h2.02v1.79h-2.02v6.28c0,.9.38,1.35,1.16,1.35h.87v1.99Z"/>
              <path class="cls-2" d="m657.88,67.19l-1.59,1.76c-.24-.26-.47-.45-.71-.57-.24-.13-.53-.2-.86-.2-.6,0-1.09.24-1.49.71-.39.47-.59,1.11-.59,1.9v7.07h-2.08v-11.64h2.08v1.27c.23-.42.62-.76,1.12-1.02.5-.26,1.04-.39,1.62-.39.55,0,1,.08,1.37.24.36.15.74.44,1.12.87Z"/>
              <path class="cls-2" d="m667.57,66.23l-4.64,13.95c-.2.61-.44,1.08-.73,1.4-.29.33-.62.57-.98.7-.36.12-.76.18-1.2.18h-.84v-2.09h.53c.44,0,.76-.08.97-.26.2-.16.38-.5.55-.98l.58-1.82-3.66-11.08h2.24l2.5,8.22,2.44-8.22h2.25Z"/>
              <path class="cls-2" d="m684.78,66.49c0,1.43-.43,2.62-1.3,3.55-.86.93-2,1.4-3.4,1.4h-3.35v6.42h-2.23v-16.32h5.58c1.41,0,2.55.46,3.41,1.39.86.92,1.29,2.11,1.29,3.56Zm-2.23-.01c0-.85-.24-1.51-.72-1.99-.47-.48-1.1-.71-1.88-.71h-3.22v5.4h3.22c.78,0,1.41-.24,1.88-.71.47-.48.72-1.13.72-1.97Z"/>
              <path class="cls-2" d="m694.55,67.19l-1.6,1.76c-.22-.26-.47-.45-.71-.57-.23-.13-.52-.2-.86-.2-.58,0-1.08.24-1.48.71-.4.47-.6,1.11-.6,1.9v7.07h-2.07v-11.64h2.07v1.26c.24-.42.62-.76,1.13-1.02.49-.26,1.04-.39,1.61-.39s1.01.08,1.37.24c.37.15.74.44,1.13.87Z"/>
              <path class="cls-2" d="m704.54,72.03c0,1.06-.09,1.95-.27,2.68-.17.74-.5,1.38-.97,1.91-.37.43-.82.76-1.33,1.01-.52.24-1.12.37-1.81.37s-1.28-.13-1.79-.37c-.51-.24-.96-.58-1.33-1.01-.47-.56-.79-1.19-.97-1.91-.19-.72-.27-1.61-.27-2.68s.08-1.93.27-2.66c.18-.73.5-1.36.97-1.91.37-.43.81-.76,1.33-1.01.51-.25,1.1-.37,1.8-.37s1.27.12,1.8.37c.51.25.97.58,1.34,1.01.47.55.79,1.19.97,1.91.18.72.27,1.61.27,2.66Zm-2.09,0c0-.8-.04-1.4-.11-1.78-.1-.6-.31-1.06-.62-1.4-.4-.44-.92-.67-1.56-.67s-1.14.23-1.54.67c-.28.32-.48.75-.58,1.27-.1.52-.14,1.16-.14,1.91,0,.81.04,1.46.13,1.95.08.49.29.9.59,1.24.42.46.93.69,1.54.69s1.14-.23,1.56-.69c.29-.32.49-.75.58-1.27.1-.53.15-1.17.15-1.91Z"/>
              <path class="cls-2" d="m722.21,77.86h-2.09v-7.09c0-.87-.19-1.52-.57-1.95-.39-.43-.9-.64-1.53-.64s-1.13.21-1.55.63c-.41.43-.62,1.03-.62,1.85v7.21h-2.1v-7.09c0-.87-.19-1.52-.58-1.95-.39-.43-.9-.64-1.54-.64s-1.16.22-1.57.65c-.41.44-.62,1.09-.62,1.94v7.09h-2.07v-11.64h2.07v1.17c.35-.42.77-.74,1.26-.97.49-.23,1-.35,1.53-.35,1.31,0,2.3.57,2.96,1.7.84-1.13,1.93-1.7,3.28-1.7.54,0,1.03.09,1.48.28.46.18.84.44,1.15.78.37.42.65.9.83,1.46.19.55.27,1.17.27,1.82v7.44Z"/>
              <path class="cls-2" d="m733.73,72.03c0,1.06-.08,1.95-.27,2.68-.18.74-.51,1.38-.97,1.91-.37.43-.82.76-1.33,1.01-.51.24-1.12.37-1.81.37s-1.27-.13-1.78-.37c-.52-.24-.96-.58-1.33-1.01-.47-.56-.8-1.19-.98-1.91-.18-.72-.28-1.61-.28-2.68s.1-1.93.28-2.66c.18-.73.51-1.36.98-1.91.37-.43.81-.76,1.31-1.01.52-.25,1.12-.37,1.8-.37s1.28.12,1.8.37c.53.25.97.58,1.34,1.01.46.55.79,1.19.97,1.91.18.72.27,1.61.27,2.66Zm-2.09,0c0-.8-.03-1.4-.11-1.78-.11-.6-.32-1.06-.63-1.4-.4-.44-.92-.67-1.56-.67s-1.13.23-1.54.67c-.29.32-.49.75-.58,1.27-.1.52-.14,1.16-.14,1.91,0,.81.04,1.46.13,1.95.09.49.29.9.6,1.24.41.46.94.69,1.54.69s1.15-.23,1.56-.69c.3-.32.49-.75.59-1.27.09-.53.15-1.17.15-1.91Z"/>
              <path class="cls-2" d="m740.96,77.86h-1.25c-.92,0-1.64-.33-2.16-.98-.47-.6-.7-1.35-.7-2.25v-6.39h-1.22v-1.79h1.22v-3.55h2.09v3.55h2.02v1.79h-2.02v6.28c0,.9.39,1.35,1.16,1.35h.86v1.99Z"/>
              <path class="cls-2" d="m745.78,63.96h-2.21v-2.48h2.21v2.48Zm-.05,13.9h-2.1v-11.61h2.1v11.61Z"/>
              <path class="cls-2" d="m757.32,72.03c0,1.06-.08,1.95-.27,2.68-.18.74-.51,1.38-.97,1.91-.38.43-.82.76-1.33,1.01-.52.24-1.12.37-1.81.37s-1.27-.13-1.79-.37c-.51-.24-.96-.58-1.33-1.01-.47-.56-.8-1.19-.97-1.91-.18-.72-.27-1.61-.27-2.68s.09-1.93.27-2.66c.17-.73.51-1.36.97-1.91.37-.43.8-.76,1.32-1.01.51-.25,1.11-.37,1.79-.37s1.27.12,1.79.37c.53.25.97.58,1.35,1.01.46.55.79,1.19.97,1.91.18.72.27,1.61.27,2.66Zm-2.09,0c0-.8-.03-1.4-.1-1.78-.11-.6-.32-1.06-.63-1.4-.4-.44-.92-.67-1.56-.67s-1.13.23-1.53.67c-.3.32-.48.75-.58,1.27-.1.52-.14,1.16-.14,1.91,0,.81.04,1.46.13,1.95.09.49.28.9.59,1.24.41.46.93.69,1.53.69s1.15-.23,1.56-.69c.29-.32.48-.75.58-1.27.1-.53.14-1.17.14-1.91Z"/>
              <path class="cls-2" d="m768.66,77.86h-2.09v-7.09c0-.87-.2-1.52-.59-1.95-.39-.43-.91-.64-1.55-.64s-1.17.22-1.57.65c-.41.44-.61,1.09-.61,1.94v7.09h-2.08v-11.64h2.08v1.17c.72-.87,1.65-1.31,2.79-1.31.53,0,1.01.09,1.45.26.44.18.81.44,1.13.79.39.42.66.89.82,1.43.16.53.23,1.15.23,1.85v7.44Z"/>
              <path class="cls-2" d="m787.94,77.86h-2.39l-.99-3.29h-5.82l-1.02,3.27h-2.36s5.39-16.31,5.39-16.31h1.8l5.39,16.32Zm-4.02-5.38l-2.21-7.25-2.3,7.25h4.52Z"/>
              <path class="cls-2" d="m797.75,77.8c0,1.44-.41,2.61-1.22,3.53-.81.92-1.9,1.38-3.26,1.38-.79,0-1.46-.12-2.03-.35-.57-.22-1.13-.63-1.68-1.19l1.35-1.5c.36.37.7.64,1.03.8.33.16.75.24,1.26.24.84,0,1.48-.3,1.91-.89.37-.52.56-1.21.56-2.07v-1.5c-.36.48-.76.83-1.2,1.04-.45.21-.95.32-1.52.32-.51,0-.97-.09-1.4-.26-.42-.18-.79-.44-1.09-.78-.48-.52-.78-1.15-.95-1.89-.16-.74-.23-1.69-.23-2.84s.07-2.08.23-2.83c.16-.76.47-1.39.95-1.92.61-.66,1.45-1.01,2.51-1.01.6,0,1.11.1,1.54.3.42.19.83.54,1.21,1.06v-1.22h2.04v11.57Zm-2.09-5.97c0-1.48-.21-2.48-.6-3-.35-.44-.86-.67-1.55-.67-.85,0-1.44.38-1.78,1.13-.24.57-.37,1.41-.37,2.54s.12,1.97.35,2.51c.34.77.95,1.16,1.8,1.16s1.47-.38,1.81-1.13c.23-.54.35-1.39.35-2.53Z"/>
              <path class="cls-2" d="m809.44,72.73h-6.78c0,1.02.22,1.82.69,2.39.46.58,1.11.86,1.97.86.58,0,1.04-.09,1.4-.26.36-.18.73-.48,1.13-.92l1.34,1.39c-.56.63-1.14,1.08-1.72,1.38-.59.29-1.32.44-2.2.44-1.44,0-2.56-.44-3.34-1.31-.91-.99-1.37-2.55-1.37-4.66,0-1.87.4-3.32,1.2-4.37.79-1.05,1.87-1.57,3.25-1.57s2.44.52,3.25,1.55c.79,1.03,1.19,2.39,1.19,4.06v1.04Zm-2.08-1.63c0-.57-.09-1.08-.28-1.55-.18-.47-.45-.84-.81-1.11-.37-.27-.79-.4-1.27-.4-.5,0-.93.12-1.28.39-.36.26-.62.62-.8,1.08-.18.46-.26.98-.26,1.59h4.7Z"/>
              <path class="cls-2" d="m820.7,77.86h-2.09v-7.09c0-.87-.19-1.52-.59-1.95-.38-.43-.9-.64-1.54-.64s-1.17.22-1.57.65c-.42.44-.62,1.09-.62,1.94v7.09h-2.07v-11.64h2.07v1.17c.73-.87,1.66-1.31,2.79-1.31.54,0,1.02.09,1.45.26.44.18.81.44,1.13.79.38.42.65.89.81,1.43.16.53.24,1.15.24,1.85v7.44Z"/>
              <path class="cls-2" d="m831.52,76.34c-.94,1.1-2.08,1.66-3.45,1.66s-2.38-.45-3.21-1.33c-.96-1.04-1.44-2.59-1.44-4.64s.48-3.57,1.44-4.61c.83-.89,1.89-1.33,3.21-1.33.75,0,1.38.12,1.91.37.52.25,1.04.67,1.54,1.27l-1.44,1.56c-.61-.74-1.28-1.11-2.01-1.11-.82,0-1.47.35-1.94,1.03-.41.58-.61,1.52-.61,2.82s.2,2.26.61,2.84c.47.69,1.12,1.03,1.94,1.03.43,0,.78-.08,1.05-.23.27-.16.6-.45.95-.87l1.44,1.54Z"/>
              <path class="cls-2" d="m841.89,66.23l-4.64,13.95c-.19.61-.44,1.08-.73,1.4-.3.33-.63.57-.98.7-.36.12-.76.18-1.2.18h-.85v-2.09h.53c.44,0,.77-.08.96-.26.2-.16.39-.5.55-.98l.58-1.82-3.65-11.08h2.24l2.5,8.22,2.43-8.22h2.25Z"/>
            </g>
          </g>
          <g>
            <g>
              <g>
                <g>
                  <polygon class="cls-1" points="0 81.23 60.92 81.23 81.23 60.92 0 81.23"/>
                  <g>
                    <polygon class="cls-4" points="0 0 0 20.31 60.92 0 0 0"/>
                    <g>
                      <polygon class="cls-5" points="54.16 47.39 81.23 20.31 60.92 0 0 20.31 54.16 47.39 54.16 47.39"/>
                      <polygon class="cls-7" points="0 20.31 0 81.23 81.23 60.92 0 20.31"/>
                    </g>
                  </g>
                </g>
                <polygon class="cls-3" points="60.92 0 0 20.31 54.16 47.39 81.23 20.31 60.92 0"/>
              </g>
              <g>
                <path class="cls-8" d="m130.99,38.93v-22.7h-5.7v6.96h-19.86v-6.96h-5.7v19.51l3.2,3.2h28.06Zm-25.56-10.79h19.86v5.89h-19.86v-5.89Z"/>
                <polygon class="cls-8" points="93.02 48.03 112.51 48.03 112.51 60.68 118.21 60.68 118.21 48.03 137.51 48.03 137.51 43.08 93.02 43.08 93.02 48.03"/>
                <polygon class="cls-8" points="177.43 16.23 171.78 16.23 171.78 49.42 177.43 49.42 177.43 32.76 184 32.76 184 27.81 177.43 27.81 177.43 16.23"/>
                <polygon class="cls-8" points="152.82 45.33 147.12 45.33 147.12 57.48 150.32 60.68 178.43 60.68 178.43 55.72 152.82 55.72 152.82 45.33"/>
                <polygon class="cls-8" points="225.53 16.23 219.89 16.23 219.89 35.75 203.07 35.75 203.07 27.07 197.37 27.07 197.37 35.75 187.28 35.75 187.28 40.65 219.89 40.65 219.89 43.13 225.53 43.13 225.53 31.72 232.1 31.72 232.1 26.77 225.53 26.77 225.53 16.23"/>
                <polygon class="cls-8" points="241.35 44.77 241.35 49.72 268.5 49.72 268.5 60.68 274.19 60.68 274.19 47.97 271 44.77 241.35 44.77"/>
                <rect class="cls-8" x="312.7" y="16.23" width="5.65" height="44.45"/>
                <polygon class="cls-8" points="209.26 33.66 214.9 33.66 214.9 21.07 211.71 17.87 190.08 17.87 190.08 22.77 209.26 22.77 209.26 33.66"/>
                <path class="cls-8" d="m209.65,43.4c-10.53-.02-16.85,3.15-16.87,9.12-.01,5.97,6.31,9.16,16.83,9.18,10.53.02,16.85-3.15,16.87-9.12.01-5.97-6.31-9.16-16.83-9.18Zm-.03,13.42c-6.95,0-11.12-1.5-11.11-4.29,0-2.79,4.18-4.27,11.13-4.26,6.95,0,11.12,1.5,11.11,4.29,0,2.79-4.18,4.27-11.13,4.26Z"/>
                <path class="cls-8" d="m258.35,36.54h10.2v6.7h5.65v-27.02h-5.65v5.22h-10.4c-2.22-2.74-5.7-4.42-9.8-4.42-7.17,0-12.43,5.11-12.43,12.1s5.26,12.09,12.43,12.09c4.23,0,7.79-1.78,10.01-4.67Zm10.2-10.29v5.49h-8.04c.17-.84.26-1.71.26-2.62,0-1-.11-1.96-.32-2.87h8.09Zm-27,2.87c0-4.08,2.87-7.06,6.79-7.06s6.79,2.98,6.79,7.06-2.87,7.06-6.79,7.06-6.79-2.98-6.79-7.06Z"/>
                <polygon class="cls-8" points="297.04 17.15 291.06 17.15 291.06 34.95 278.56 49.03 282.86 52.84 294.04 40.25 305.23 52.84 309.53 49.03 297.04 34.97 297.04 17.15"/>
                <polygon class="cls-8" points="166.49 42.4 170.22 38.02 157.61 27.25 157.61 17.15 151.63 17.15 151.63 27.25 139.02 38.02 142.75 42.4 154.62 32.26 166.49 42.4"/>
              </g>
            </g>
            <g>
              <path class="cls-8" d="m97.48,69.82h7.15l1.63,1.63v3.19l-.65.67,1.16,1.17v2.98l-1.76,1.76h-7.52v-11.4Zm6.01,4.77l.59-.59v-1.76l-.57-.57h-3.86v2.91h3.84Zm.39,4.77l.7-.7v-1.6l-.7-.7h-4.23v3h4.23Z"/>
              <path class="cls-8" d="m108.55,79.26v-9.44h2.21v8.68l.83.83h3.19l.83-.83v-8.68h2.21v9.44l-1.95,1.95h-5.37l-1.95-1.95Z"/>
              <path class="cls-8" d="m119.87,79.46v-1.63h2.18v.96l.54.54h3.37l.55-.55v-1.89l-.54-.54h-4.31l-1.76-1.76v-3.01l1.76-1.76h5.15l1.76,1.76v1.64h-2.18v-.98l-.54-.54h-3.22l-.54.54v1.68l.54.54h4.31l1.76,1.76v3.21l-1.79,1.79h-5.28l-1.76-1.76Z"/>
              <path class="cls-8" d="m133.52,69.82h2.02l4.17,11.4h-2.25l-.93-2.52h-4.01l-.93,2.52h-2.25l4.17-11.4Zm2.52,7.05l-1.51-4.33h-.03l-1.47,4.33h3.01Z"/>
              <path class="cls-8" d="m141.01,69.82h1.99l5.08,7.73h.03v-7.73h2.13v11.4h-1.99l-5.08-7.72h-.03v7.72h-2.13v-11.4Z"/>
              <path class="cls-8" d="m157.11,69.82h2.05l3.39,7.36h.03l3.4-7.36h2.05v11.4h-2.13v-6.94h-.03l-2.62,5.34h-1.37l-2.61-5.34h-.03v6.94h-2.13v-11.4Z"/>
              <path class="cls-8" d="m170.32,69.82h8.24v1.87h-6.02v2.88h5.55v1.84h-5.55v2.93h6.02v1.87h-8.24v-11.4Z"/>
              <path class="cls-8" d="m182.94,71.69h-3.4v-1.87h9.02v1.87h-3.4v9.53h-2.21v-9.53Z"/>
              <path class="cls-8" d="m198.98,77.44v3.78h-2.21v-3.27l-.98-1.09h-3.55v4.36h-2.21v-11.4h7.15l1.74,1.76v3.45l-1.11,1.12,1.17,1.29Zm-6.74-2.41h3.92l.57-.57v-2.21l-.57-.57h-3.92v3.35Z"/>
              <path class="cls-8" d="m201.01,79.34v-7.65l1.87-1.87h5.86l1.87,1.87v7.65l-1.87,1.87h-5.86l-1.87-1.87Zm6.56-.02l.83-.83v-5.96l-.83-.83h-3.52l-.83.83v5.96l.83.83h3.52Z"/>
              <path class="cls-8" d="m212.74,69.82h7.15l1.74,1.76v3.99l-1.76,1.77h-4.92v3.88h-2.21v-11.4Zm6.14,5.67l.57-.57v-2.67l-.57-.57h-3.92v3.81h3.92Z"/>
              <path class="cls-8" d="m223.25,79.34v-7.65l1.87-1.87h5.86l1.87,1.87v7.65l-1.87,1.87h-5.86l-1.87-1.87Zm6.56-.02l.83-.83v-5.96l-.83-.83h-3.52l-.83.83v5.96l.83.83h3.52Z"/>
              <path class="cls-8" d="m234.98,69.82h2.21v9.53h5.7v1.87h-7.91v-11.4Z"/>
              <path class="cls-8" d="m244.36,69.82h2.21v11.4h-2.21v-11.4Z"/>
              <path class="cls-8" d="m251.52,71.69h-3.4v-1.87h9.02v1.87h-3.4v9.53h-2.21v-9.53Z"/>
              <path class="cls-8" d="m260.33,69.82h2.02l4.17,11.4h-2.25l-.93-2.52h-4.01l-.93,2.52h-2.25l4.17-11.4Zm2.52,7.05l-1.51-4.33h-.03l-1.47,4.33h3.01Z"/>
              <path class="cls-8" d="m267.82,69.82h1.99l5.08,7.73h.03v-7.73h2.13v11.4h-1.99l-5.08-7.72h-.03v7.72h-2.13v-11.4Z"/>
              <path class="cls-8" d="m283.76,79.34v-7.65l1.87-1.87h5.57l1.84,1.84v1.74h-2.21v-.93l-.77-.77h-3.26l-.83.83v5.96l.83.83h3.26l.77-.77v-.93h2.21v1.74l-1.84,1.84h-5.57l-1.87-1.87Z"/>
              <path class="cls-8" d="m294.84,69.82h2.21v11.4h-2.21v-11.4Z"/>
              <path class="cls-8" d="m302,71.69h-3.4v-1.87h9.02v1.87h-3.4v9.53h-2.21v-9.53Z"/>
              <path class="cls-8" d="m312.08,76.56l-4.05-6.74h2.43l2.72,4.67h.03l2.72-4.67h2.43l-4.05,6.74v4.66h-2.21v-4.66Z"/>
            </g>
          </g>
        </g>
      </g>
    </g>
  </g>
</svg>